The Magic of R
…
- Using the same functions you would use with your day-to-day datasets in R
  - See package `dbplyr`, the database version of `dplyr`

---
# Can extract my favorite recipes!

```r
directions_new %>%
  select(recipe_id, direction_id, directions_text)
```

```
## # A tibble: 610 x 3
##    recipe_id direction_id directions_text                                                    
##        <int>        <int> <chr>                                                              
##  1       200          995 "Put the potatoes in the bottom of an Instant Pot. Add 1 cup water…
##  2       200          996 "Rub the top and sides of the salmon fillets with the paprika and …
##  3       200          997 "Remove the salmon and rack and set the cooker to saute at normal …
##  4       200          998 "Turn off the cooker. Add the mixed greens to the potatoes and sti…
##  5       201          999 "Make sure the stainless steel insert is in your Instant Pot. Butt…
##  6       201         1000 "Add 1 cup of tap water to the IP. Set the trivet (that came with …
##  7       201         1001 "In a medium mixing bowl, place butter (cut into squares) and choc…
##  8       201         1002 "Add powdered sugar. If your powdered sugar is clumpy, sift it ove…
##  9       201         1003 "Add egg and egg yolk and vanilla and whisk well. Add flour and sa…
## 10       201         1004 "Divide the chocolate batter evenly among the ramekins. Place rame…
## # … with 600 more rows
```
…
vaccines <- bind_rows(page1, page2)
names(vaccines) <- c("State", "MMR", "DTaP", "HepB", "HepA", 
                     "Rotavirus", "Series")
```

---
# Collect data

Into clean data:

```
# A tibble: 74 x 7
   State           MMR  DTaP  HepB  HepA Rotavirus Series
   <chr>         <dbl> <dbl> <dbl> <dbl>     <dbl>  <dbl>
 1 US National    91.5  83.2  73.6  59.7      73.2   70.4
 2 HHS REGION I   96.3  90.2  73.4  62.8      81.3   78.5
 3 Connecticut    94.6  86.8  78.5  73        84     75.3
 4 Maine          93.7  90.3  63.1  61        75.6   72.7
 5 Massachusetts  98.3  92.6  75    56.9      80.1   82.1
 6 New Hampshire  94.1  89.8  67.2  64.9      84.5   78.9
 7 Rhode Island   95.3  89.2  75.7  69        85.1   74.4
 8 Vermont        93.7  85.5  52.4  58.1      75.8   74  
 9 HHS REGION II  91.4  83.1  67.8  54.1      73.1   68  
10 New Jersey     89    82.8  60    49.5      70.2   69.3
# … with 64 more rows
```
…
